%YAML 1.1
%TAG !u! tag:unity3d.com,2011:
--- !u!1045 &1
EditorBuildSettings:
  m_ObjectHideFlags: 0
  serializedVersion: 2
  m_Scenes:
  - enabled: 1
    path: Assets/Levels/UI Scenes/MainMenu.unity
    guid: 7cdf23d04a2634844893cc6577dc46d3
  - enabled: 1
    path: Assets/Levels/LavaLevel.unity
    guid: 7f8cee33ed544374d865ef28ffe69099
  - enabled: 1
    path: Assets/Levels/UI Scenes/Menu.unity
    guid: b3cc2eeaa09e7604dbd4450c732258ac
  - enabled: 1
    path: Assets/Levels/UI Scenes/CharacterSelect.unity
    guid: 465b7e25581d46c43abd78a069941e35
